main.cpp: In function ‘void del_cond_1(int, int)’:
main.cpp:1096:28: warning: ignoring return value of ‘bool std::vector<_Tp, _Alloc>::empty() const [with _Tp = int; _Alloc = std::allocator<int>]’, declared with attribute nodiscard [-Wunused-result]
 1096 |     comm_members_node.empty();
      |     ~~~~~~~~~~~~~~~~~~~~~~~^~
In file included from /projects/opt/aarch64/rhel8/gcc/9.4.0/include/c++/9.4.0/vector:67,
                 from main.cpp:3:
/projects/opt/aarch64/rhel8/gcc/9.4.0/include/c++/9.4.0/bits/stl_vector.h:1004:7: note: declared here
 1004 |       empty() const _GLIBCXX_NOEXCEPT
      |       ^~~~~
main.cpp:1097:28: warning: ignoring return value of ‘bool std::vector<_Tp, _Alloc>::empty() const [with _Tp = int; _Alloc = std::allocator<int>]’, declared with attribute nodiscard [-Wunused-result]
 1097 |     temp_comm_members.empty();
      |     ~~~~~~~~~~~~~~~~~~~~~~~^~
In file included from /projects/opt/aarch64/rhel8/gcc/9.4.0/include/c++/9.4.0/vector:67,
                 from main.cpp:3:
/projects/opt/aarch64/rhel8/gcc/9.4.0/include/c++/9.4.0/bits/stl_vector.h:1004:7: note: declared here
 1004 |       empty() const _GLIBCXX_NOEXCEPT
      |       ^~~~~
main.cpp:1126:28: warning: ignoring return value of ‘bool std::vector<_Tp, _Alloc>::empty() const [with _Tp = int; _Alloc = std::allocator<int>]’, declared with attribute nodiscard [-Wunused-result]
 1126 |     comm_members_node.empty();
      |     ~~~~~~~~~~~~~~~~~~~~~~~^~
In file included from /projects/opt/aarch64/rhel8/gcc/9.4.0/include/c++/9.4.0/vector:67,
                 from main.cpp:3:
/projects/opt/aarch64/rhel8/gcc/9.4.0/include/c++/9.4.0/bits/stl_vector.h:1004:7: note: declared here
 1004 |       empty() const _GLIBCXX_NOEXCEPT
      |       ^~~~~
main.cpp:1127:28: warning: ignoring return value of ‘bool std::vector<_Tp, _Alloc>::empty() const [with _Tp = int; _Alloc = std::allocator<int>]’, declared with attribute nodiscard [-Wunused-result]
 1127 |     temp_comm_members.empty();
      |     ~~~~~~~~~~~~~~~~~~~~~~~^~
In file included from /projects/opt/aarch64/rhel8/gcc/9.4.0/include/c++/9.4.0/vector:67,
                 from main.cpp:3:
/projects/opt/aarch64/rhel8/gcc/9.4.0/include/c++/9.4.0/bits/stl_vector.h:1004:7: note: declared here
 1004 |       empty() const _GLIBCXX_NOEXCEPT
      |       ^~~~~
main.cpp: In function ‘void del_cond_2(int, int)’:
main.cpp:1161:28: warning: ignoring return value of ‘bool std::vector<_Tp, _Alloc>::empty() const [with _Tp = int; _Alloc = std::allocator<int>]’, declared with attribute nodiscard [-Wunused-result]
 1161 |     comm_members_node.empty();
      |     ~~~~~~~~~~~~~~~~~~~~~~~^~
In file included from /projects/opt/aarch64/rhel8/gcc/9.4.0/include/c++/9.4.0/vector:67,
                 from main.cpp:3:
/projects/opt/aarch64/rhel8/gcc/9.4.0/include/c++/9.4.0/bits/stl_vector.h:1004:7: note: declared here
 1004 |       empty() const _GLIBCXX_NOEXCEPT
      |       ^~~~~
main.cpp:1162:28: warning: ignoring return value of ‘bool std::vector<_Tp, _Alloc>::empty() const [with _Tp = int; _Alloc = std::allocator<int>]’, declared with attribute nodiscard [-Wunused-result]
 1162 |     temp_comm_members.empty();
      |     ~~~~~~~~~~~~~~~~~~~~~~~^~
In file included from /projects/opt/aarch64/rhel8/gcc/9.4.0/include/c++/9.4.0/vector:67,
                 from main.cpp:3:
/projects/opt/aarch64/rhel8/gcc/9.4.0/include/c++/9.4.0/bits/stl_vector.h:1004:7: note: declared here
 1004 |       empty() const _GLIBCXX_NOEXCEPT
      |       ^~~~~
main.cpp: In function ‘void del_cond_3(int, int)’:
main.cpp:1197:28: warning: ignoring return value of ‘bool std::vector<_Tp, _Alloc>::empty() const [with _Tp = int; _Alloc = std::allocator<int>]’, declared with attribute nodiscard [-Wunused-result]
 1197 |     comm_members_node.empty();
      |     ~~~~~~~~~~~~~~~~~~~~~~~^~
In file included from /projects/opt/aarch64/rhel8/gcc/9.4.0/include/c++/9.4.0/vector:67,
                 from main.cpp:3:
/projects/opt/aarch64/rhel8/gcc/9.4.0/include/c++/9.4.0/bits/stl_vector.h:1004:7: note: declared here
 1004 |       empty() const _GLIBCXX_NOEXCEPT
      |       ^~~~~
main.cpp:1198:28: warning: ignoring return value of ‘bool std::vector<_Tp, _Alloc>::empty() const [with _Tp = int; _Alloc = std::allocator<int>]’, declared with attribute nodiscard [-Wunused-result]
 1198 |     temp_comm_members.empty();
      |     ~~~~~~~~~~~~~~~~~~~~~~~^~
In file included from /projects/opt/aarch64/rhel8/gcc/9.4.0/include/c++/9.4.0/vector:67,
                 from main.cpp:3:
/projects/opt/aarch64/rhel8/gcc/9.4.0/include/c++/9.4.0/bits/stl_vector.h:1004:7: note: declared here
 1004 |       empty() const _GLIBCXX_NOEXCEPT
      |       ^~~~~
No Affinity:
Threads: 16
2,46788,495
3,205619,1802
252407,2297,255511
Affinity: spread threads
Threads: 16
2,47601,672
3,375379,10941
422980,11613,435393
Affinity: close threads
Threads: 16
2,109686,1095
3,535734,4244
645420,5339,651559
Affinity: spread cores
Threads: 16
2,48775,516
3,205171,1825
253946,2341,257085
Affinity: close cores
Threads: 16
2,41486,459
3,200354,1753
241840,2212,244850
