main.cpp: In function ‘void del_cond_1(int, int)’:
main.cpp:1096:28: warning: ignoring return value of ‘bool std::vector<_Tp, _Alloc>::empty() const [with _Tp = int; _Alloc = std::allocator<int>]’, declared with attribute nodiscard [-Wunused-result]
 1096 |     comm_members_node.empty();
      |     ~~~~~~~~~~~~~~~~~~~~~~~^~
In file included from /projects/opt/rhel8/aarch64-a64fx/gcc/9.4.0/include/c++/9.4.0/vector:67,
                 from main.cpp:3:
/projects/opt/rhel8/aarch64-a64fx/gcc/9.4.0/include/c++/9.4.0/bits/stl_vector.h:1004:7: note: declared here
 1004 |       empty() const _GLIBCXX_NOEXCEPT
      |       ^~~~~
main.cpp:1097:28: warning: ignoring return value of ‘bool std::vector<_Tp, _Alloc>::empty() const [with _Tp = int; _Alloc = std::allocator<int>]’, declared with attribute nodiscard [-Wunused-result]
 1097 |     temp_comm_members.empty();
      |     ~~~~~~~~~~~~~~~~~~~~~~~^~
In file included from /projects/opt/rhel8/aarch64-a64fx/gcc/9.4.0/include/c++/9.4.0/vector:67,
                 from main.cpp:3:
/projects/opt/rhel8/aarch64-a64fx/gcc/9.4.0/include/c++/9.4.0/bits/stl_vector.h:1004:7: note: declared here
 1004 |       empty() const _GLIBCXX_NOEXCEPT
      |       ^~~~~
main.cpp:1126:28: warning: ignoring return value of ‘bool std::vector<_Tp, _Alloc>::empty() const [with _Tp = int; _Alloc = std::allocator<int>]’, declared with attribute nodiscard [-Wunused-result]
 1126 |     comm_members_node.empty();
      |     ~~~~~~~~~~~~~~~~~~~~~~~^~
In file included from /projects/opt/rhel8/aarch64-a64fx/gcc/9.4.0/include/c++/9.4.0/vector:67,
                 from main.cpp:3:
/projects/opt/rhel8/aarch64-a64fx/gcc/9.4.0/include/c++/9.4.0/bits/stl_vector.h:1004:7: note: declared here
 1004 |       empty() const _GLIBCXX_NOEXCEPT
      |       ^~~~~
main.cpp:1127:28: warning: ignoring return value of ‘bool std::vector<_Tp, _Alloc>::empty() const [with _Tp = int; _Alloc = std::allocator<int>]’, declared with attribute nodiscard [-Wunused-result]
 1127 |     temp_comm_members.empty();
      |     ~~~~~~~~~~~~~~~~~~~~~~~^~
In file included from /projects/opt/rhel8/aarch64-a64fx/gcc/9.4.0/include/c++/9.4.0/vector:67,
                 from main.cpp:3:
/projects/opt/rhel8/aarch64-a64fx/gcc/9.4.0/include/c++/9.4.0/bits/stl_vector.h:1004:7: note: declared here
 1004 |       empty() const _GLIBCXX_NOEXCEPT
      |       ^~~~~
main.cpp: In function ‘void del_cond_2(int, int)’:
main.cpp:1161:28: warning: ignoring return value of ‘bool std::vector<_Tp, _Alloc>::empty() const [with _Tp = int; _Alloc = std::allocator<int>]’, declared with attribute nodiscard [-Wunused-result]
 1161 |     comm_members_node.empty();
      |     ~~~~~~~~~~~~~~~~~~~~~~~^~
In file included from /projects/opt/rhel8/aarch64-a64fx/gcc/9.4.0/include/c++/9.4.0/vector:67,
                 from main.cpp:3:
/projects/opt/rhel8/aarch64-a64fx/gcc/9.4.0/include/c++/9.4.0/bits/stl_vector.h:1004:7: note: declared here
 1004 |       empty() const _GLIBCXX_NOEXCEPT
      |       ^~~~~
main.cpp:1162:28: warning: ignoring return value of ‘bool std::vector<_Tp, _Alloc>::empty() const [with _Tp = int; _Alloc = std::allocator<int>]’, declared with attribute nodiscard [-Wunused-result]
 1162 |     temp_comm_members.empty();
      |     ~~~~~~~~~~~~~~~~~~~~~~~^~
In file included from /projects/opt/rhel8/aarch64-a64fx/gcc/9.4.0/include/c++/9.4.0/vector:67,
                 from main.cpp:3:
/projects/opt/rhel8/aarch64-a64fx/gcc/9.4.0/include/c++/9.4.0/bits/stl_vector.h:1004:7: note: declared here
 1004 |       empty() const _GLIBCXX_NOEXCEPT
      |       ^~~~~
main.cpp: In function ‘void del_cond_3(int, int)’:
main.cpp:1197:28: warning: ignoring return value of ‘bool std::vector<_Tp, _Alloc>::empty() const [with _Tp = int; _Alloc = std::allocator<int>]’, declared with attribute nodiscard [-Wunused-result]
 1197 |     comm_members_node.empty();
      |     ~~~~~~~~~~~~~~~~~~~~~~~^~
In file included from /projects/opt/rhel8/aarch64-a64fx/gcc/9.4.0/include/c++/9.4.0/vector:67,
                 from main.cpp:3:
/projects/opt/rhel8/aarch64-a64fx/gcc/9.4.0/include/c++/9.4.0/bits/stl_vector.h:1004:7: note: declared here
 1004 |       empty() const _GLIBCXX_NOEXCEPT
      |       ^~~~~
main.cpp:1198:28: warning: ignoring return value of ‘bool std::vector<_Tp, _Alloc>::empty() const [with _Tp = int; _Alloc = std::allocator<int>]’, declared with attribute nodiscard [-Wunused-result]
 1198 |     temp_comm_members.empty();
      |     ~~~~~~~~~~~~~~~~~~~~~~~^~
In file included from /projects/opt/rhel8/aarch64-a64fx/gcc/9.4.0/include/c++/9.4.0/vector:67,
                 from main.cpp:3:
/projects/opt/rhel8/aarch64-a64fx/gcc/9.4.0/include/c++/9.4.0/bits/stl_vector.h:1004:7: note: declared here
 1004 |       empty() const _GLIBCXX_NOEXCEPT
      |       ^~~~~
No Affinity:
Threads: 16
2,174671,1917
terminate called after throwing an instance of 'std::bad_alloc'
  what():  std::bad_alloc
/tmp/slurmd/job13159198/slurm_script: line 42: 16384 Aborted                 (core dumped) ./main -i ../example/primary_school/community-list/ps -s 3 -o ../example/primary_school/output/output-list-aug-24-2021 -f 1
Affinity: spread threads
Threads: 16
2,118244,1365
3,546008,4890
664252,6255,672460
Affinity: close threads
Threads: 16
2,116615,1296
3,544556,4910
661171,6206,669326
Affinity: spread cores
Threads: 16
2,117811,1346
3,544908,5077
662719,6423,671090
Affinity: close cores
Threads: 16
2,116325,1331
3,543334,4948
659659,6279,667885
