main.cpp: In function ‘void del_cond_1(int, int)’:
main.cpp:1096:28: warning: ignoring return value of ‘bool std::vector<_Tp, _Alloc>::empty() const [with _Tp = int; _Alloc = std::allocator<int>]’, declared with attribute nodiscard [-Wunused-result]
 1096 |     comm_members_node.empty();
      |     ~~~~~~~~~~~~~~~~~~~~~~~^~
In file included from /projects/opt/centos7/x86_64/gcc/9.4.0/include/c++/9.4.0/vector:67,
                 from main.cpp:3:
/projects/opt/centos7/x86_64/gcc/9.4.0/include/c++/9.4.0/bits/stl_vector.h:1004:7: note: declared here
 1004 |       empty() const _GLIBCXX_NOEXCEPT
      |       ^~~~~
main.cpp:1097:28: warning: ignoring return value of ‘bool std::vector<_Tp, _Alloc>::empty() const [with _Tp = int; _Alloc = std::allocator<int>]’, declared with attribute nodiscard [-Wunused-result]
 1097 |     temp_comm_members.empty();
      |     ~~~~~~~~~~~~~~~~~~~~~~~^~
In file included from /projects/opt/centos7/x86_64/gcc/9.4.0/include/c++/9.4.0/vector:67,
                 from main.cpp:3:
/projects/opt/centos7/x86_64/gcc/9.4.0/include/c++/9.4.0/bits/stl_vector.h:1004:7: note: declared here
 1004 |       empty() const _GLIBCXX_NOEXCEPT
      |       ^~~~~
main.cpp:1126:28: warning: ignoring return value of ‘bool std::vector<_Tp, _Alloc>::empty() const [with _Tp = int; _Alloc = std::allocator<int>]’, declared with attribute nodiscard [-Wunused-result]
 1126 |     comm_members_node.empty();
      |     ~~~~~~~~~~~~~~~~~~~~~~~^~
In file included from /projects/opt/centos7/x86_64/gcc/9.4.0/include/c++/9.4.0/vector:67,
                 from main.cpp:3:
/projects/opt/centos7/x86_64/gcc/9.4.0/include/c++/9.4.0/bits/stl_vector.h:1004:7: note: declared here
 1004 |       empty() const _GLIBCXX_NOEXCEPT
      |       ^~~~~
main.cpp:1127:28: warning: ignoring return value of ‘bool std::vector<_Tp, _Alloc>::empty() const [with _Tp = int; _Alloc = std::allocator<int>]’, declared with attribute nodiscard [-Wunused-result]
 1127 |     temp_comm_members.empty();
      |     ~~~~~~~~~~~~~~~~~~~~~~~^~
In file included from /projects/opt/centos7/x86_64/gcc/9.4.0/include/c++/9.4.0/vector:67,
                 from main.cpp:3:
/projects/opt/centos7/x86_64/gcc/9.4.0/include/c++/9.4.0/bits/stl_vector.h:1004:7: note: declared here
 1004 |       empty() const _GLIBCXX_NOEXCEPT
      |       ^~~~~
main.cpp: In function ‘void del_cond_2(int, int)’:
main.cpp:1161:28: warning: ignoring return value of ‘bool std::vector<_Tp, _Alloc>::empty() const [with _Tp = int; _Alloc = std::allocator<int>]’, declared with attribute nodiscard [-Wunused-result]
 1161 |     comm_members_node.empty();
      |     ~~~~~~~~~~~~~~~~~~~~~~~^~
In file included from /projects/opt/centos7/x86_64/gcc/9.4.0/include/c++/9.4.0/vector:67,
                 from main.cpp:3:
/projects/opt/centos7/x86_64/gcc/9.4.0/include/c++/9.4.0/bits/stl_vector.h:1004:7: note: declared here
 1004 |       empty() const _GLIBCXX_NOEXCEPT
      |       ^~~~~
main.cpp:1162:28: warning: ignoring return value of ‘bool std::vector<_Tp, _Alloc>::empty() const [with _Tp = int; _Alloc = std::allocator<int>]’, declared with attribute nodiscard [-Wunused-result]
 1162 |     temp_comm_members.empty();
      |     ~~~~~~~~~~~~~~~~~~~~~~~^~
In file included from /projects/opt/centos7/x86_64/gcc/9.4.0/include/c++/9.4.0/vector:67,
                 from main.cpp:3:
/projects/opt/centos7/x86_64/gcc/9.4.0/include/c++/9.4.0/bits/stl_vector.h:1004:7: note: declared here
 1004 |       empty() const _GLIBCXX_NOEXCEPT
      |       ^~~~~
main.cpp: In function ‘void del_cond_3(int, int)’:
main.cpp:1197:28: warning: ignoring return value of ‘bool std::vector<_Tp, _Alloc>::empty() const [with _Tp = int; _Alloc = std::allocator<int>]’, declared with attribute nodiscard [-Wunused-result]
 1197 |     comm_members_node.empty();
      |     ~~~~~~~~~~~~~~~~~~~~~~~^~
In file included from /projects/opt/centos7/x86_64/gcc/9.4.0/include/c++/9.4.0/vector:67,
                 from main.cpp:3:
/projects/opt/centos7/x86_64/gcc/9.4.0/include/c++/9.4.0/bits/stl_vector.h:1004:7: note: declared here
 1004 |       empty() const _GLIBCXX_NOEXCEPT
      |       ^~~~~
main.cpp:1198:28: warning: ignoring return value of ‘bool std::vector<_Tp, _Alloc>::empty() const [with _Tp = int; _Alloc = std::allocator<int>]’, declared with attribute nodiscard [-Wunused-result]
 1198 |     temp_comm_members.empty();
      |     ~~~~~~~~~~~~~~~~~~~~~~~^~
In file included from /projects/opt/centos7/x86_64/gcc/9.4.0/include/c++/9.4.0/vector:67,
                 from main.cpp:3:
/projects/opt/centos7/x86_64/gcc/9.4.0/include/c++/9.4.0/bits/stl_vector.h:1004:7: note: declared here
 1004 |       empty() const _GLIBCXX_NOEXCEPT
      |       ^~~~~
No Affinity:
Threads: 16
2,53700,580
3,259317,2356
313017,2936,316449
Affinity: spread threads
Threads: 16
2,56716,646
3,251632,2286
308348,2932,311752
Affinity: close threads
Threads: 16
2,46611,516
3,234725,2008
281336,2524,284345
Affinity: spread cores
Threads: 16
2,54737,635
3,250769,2245
305506,2880,308861
Affinity: close cores
Threads: 16
2,45309,480
3,198203,1825
243512,2305,246290
